comethLogRegress
…
the next CpG - doesn’t matter if first was m or u, it’s just same or
not same

for_beta_log <- for_beta_all %>%
  filter(total > 1) %>%
  group_by(read_id) %>%
      mutate(dist_to_next = lead(start) - start,
            meth_and_next = paste0(meth_status, lead(meth_status))) %>%
      ungroup() %>%
  filter(!grepl("A", .$meth_and_next)) %>%
  mutate(pattern_type = ifelse(meth_pattern == "MM" | meth_pattern == "UU", "same", "different"),
         pattern_value = ifelse(pattern_type == "same", 1, 0))
for_beta_log[,c("dist_to_next", "meth_and_next", "pattern_type", "pattern_value")]

# A tibble: 476,921 × 4
   dist_to_next meth_and_next pattern_type pattern_value
          <int> <chr>         <chr>                <dbl>
 1            9 MU            different                0
 2            4 UU            different                0
 3            2 UU            different                0
 4           13 UM            different                0
 5            6 MU            different                0
 6           27 MM            same                     1
 7           12 MM            different                0
 8           14 MU            different                0
 9            6 UU            different                0
10           28 UU            different                0
# ℹ 476,911 more rows
…
for_beta <- find_overlaps(as_granges(for_beta), as_granges(annotations)) %>% data.frame() %>%
  mutate(cgi = ifelse(type == "hg38_cpg_islands", "island", "not_island"))

for_beta_log <- for_beta %>%
  filter(total > 1) %>%
  group_by(read_id, cgi) %>%
      mutate(dist_to_next = lead(start) - start,
            meth_and_next = paste0(meth_status, lead(meth_status))) %>%
      ungroup() %>%
  filter(!grepl("A", .$meth_and_next)) %>%
  mutate(pattern_type = ifelse(meth_pattern == "MM" | meth_pattern == "UU", "same", "different"),
         pattern_value = ifelse(pattern_type == "same", 1, 0))
for_beta_log[,c("cgi", "dist_to_next", "meth_and_next", "pattern_type", "pattern_value")]

# A tibble: 475,790 × 5
   cgi        dist_to_next meth_and_next pattern_type pattern_value
   <chr>             <int> <chr>         <chr>                <dbl>
 1 island                9 MU            different                0
 2 island                4 UU            different                0
 3 island                2 UU            different                0
 4 island               13 UM            different                0
 5 island                6 MU            different                0
 6 not_island           27 MM            same                     1
 7 not_island           12 MM            different                0
 8 not_island           14 MU            different                0
 9 not_island            6 UU            different                0
10 island               28 UU            different                0
# ℹ 475,780 more rows
…
