dtuDiffGroupsAndGst
…
Author

Date

8e22e41

caitlinpage

2026-05-27

visualise tiles and compare counts in tiles

dtu_tiles_3

# A tibble: 170,628 × 9
   seqnames    start    end NExons gene.F   P.Value       FDR region_id dtu_rank
   <chr>       <dbl>  <dbl>  <dbl>  <dbl>     <dbl>     <dbl> <chr>        <int>
 1 chr22      2.10e7 2.10e7      3   266. 1.15e-112 1.97e-107 chrchr22…        1
 2 chr7       1.28e8 1.28e8      3   262. 7.01e-111 5.98e-106 chrchr7:…        2
 3 chr10      7.92e7 7.92e7      3   242. 6.22e-103 3.35e- 98 chrchr10…        3
 4 chr8       9.83e7 9.83e7      3   242. 7.86e-103 3.35e- 98 chrchr8:…        4
 5 chr1       1.54e6 1.54e6      3   240. 7.65e-102 2.61e- 97 chrchr1:…        5
 6 chr9       3.76e7 3.76e7      3   235. 3.90e-100 1.11e- 95 chrchr9:…        6
 7 chr2       2.52e7 2.52e7      3   235. 4.61e-100 1.12e- 95 chrchr2:…        7
 8 chr1       6.73e7 6.73e7      3   231. 4.05e- 98 8.63e- 94 chrchr1:…        8
 9 chr6       4.29e7 4.29e7      3   229. 2.34e- 97 4.43e- 93 chrchr6:…        9
10 chr15      7.63e7 7.63e7      3   225. 1.15e- 95 1.96e- 91 chrchr15…       10
# ℹ 170,618 more rows
…
